hyperparameter-tuning – CSU Lab 8
…
remote_files  <- glue('{root}/camels_{types}.txt')

local_files   <- glue('data/camels_{types}.txt')

walk2(remote_files, local_files, download.file, quiet = TRUE)

camels <- map(local_files, read_delim, show_col_types = FALSE) 

camels <- power_full_join(camels ,by = 'gauge_id')

# Data Cleaning:

drop_na(camels)

# A tibble: 507 × 58
   gauge_id p_mean pet_mean p_seasonality frac_snow aridity high_prec_freq
   <chr>     <dbl>    <dbl>         <dbl>     <dbl>   <dbl>          <dbl>
 1 01022500   3.61     2.12       -0.115      0.245   0.587           20.6
 2 01031500   3.52     2.07        0.104      0.292   0.588           18.9
 3 01047000   3.32     2.09        0.148      0.280   0.629           20.1
 4 01052500   3.73     2.10        0.152      0.353   0.562           13.5
 5 01054200   4.07     2.13        0.105      0.300   0.523           17.5
 6 01055000   3.49     2.09        0.167      0.306   0.599           19.2
 7 01057000   3.57     2.13        0.0791     0.251   0.597           20.4
 8 01073000   3.50     2.21        0.0304     0.175   0.630           20.8
 9 01078000   3.56     2.18        0.110      0.240   0.613           21.4
10 01118300   3.90     2.31       -0.0377     0.111   0.593           21.5
# ℹ 497 more rows
# ℹ 51 more variables: high_prec_dur <dbl>, high_prec_timing <chr>,
#   low_prec_freq <dbl>, low_prec_dur <dbl>, low_prec_timing <chr>,
#   geol_1st_class <chr>, glim_1st_class_frac <dbl>, geol_2nd_class <chr>,
#   glim_2nd_class_frac <dbl>, carbonate_rocks_frac <dbl>, geol_porostiy <dbl>,
#   geol_permeability <dbl>, soil_depth_pelletier <dbl>,
#   soil_depth_statsgo <dbl>, soil_porosity <dbl>, soil_conductivity <dbl>, …

camels %>% 
  mutate(logC = log(q_mean +1))

# A tibble: 671 × 59
   gauge_id p_mean pet_mean p_seasonality frac_snow aridity high_prec_freq
   <chr>     <dbl>    <dbl>         <dbl>     <dbl>   <dbl>          <dbl>
 1 01013500   3.13     1.97        0.188      0.313   0.631           13.0
 2 01022500   3.61     2.12       -0.115      0.245   0.587           20.6
 3 01030500   3.27     2.04        0.0474     0.277   0.624           17.2
 4 01031500   3.52     2.07        0.104      0.292   0.588           18.9
 5 01047000   3.32     2.09        0.148      0.280   0.629           20.1
 6 01052500   3.73     2.10        0.152      0.353   0.562           13.5
 7 01054200   4.07     2.13        0.105      0.300   0.523           17.5
 8 01055000   3.49     2.09        0.167      0.306   0.599           19.2
 9 01057000   3.57     2.13        0.0791     0.251   0.597           20.4
10 01073000   3.50     2.21        0.0304     0.175   0.630           20.8
# ℹ 661 more rows
# ℹ 52 more variables: high_prec_dur <dbl>, high_prec_timing <chr>,
#   low_prec_freq <dbl>, low_prec_dur <dbl>, low_prec_timing <chr>,
#   geol_1st_class <chr>, glim_1st_class_frac <dbl>, geol_2nd_class <chr>,
#   glim_2nd_class_frac <dbl>, carbonate_rocks_frac <dbl>, geol_porostiy <dbl>,
#   geol_permeability <dbl>, soil_depth_pelletier <dbl>,
#   soil_depth_statsgo <dbl>, soil_porosity <dbl>, soil_conductivity <dbl>, …
…
As the minimal node size increases, mean absolute error and root mean squared error increase while r squared decreases. Number of trees has no affect on any of the metrics, as the scatter plots are completely random.

CHECK SKILL OF TUNED MODEL

# Collect Metrics

collect_metrics(model_params)

# A tibble: 60 × 8
   trees min_n .metric .estimator  mean     n std_err .config              
   <int> <int> <chr>   <chr>      <dbl> <int>   <dbl> <chr>                
 1   249    13 mae     standard   0.154    10 0.0121  Preprocessor1_Model01
 2   249    13 rmse    standard   0.306    10 0.0363  Preprocessor1_Model01
 3   249    13 rsq     standard   0.970    10 0.00533 Preprocessor1_Model01
 4   139    36 mae     standard   0.196    10 0.0157  Preprocessor1_Model02
 5   139    36 rmse    standard   0.396    10 0.0487  Preprocessor1_Model02
 6   139    36 rsq     standard   0.950    10 0.00800 Preprocessor1_Model02
 7    98    30 mae     standard   0.186    10 0.0145  Preprocessor1_Model03
 8    98    30 rmse    standard   0.374    10 0.0426  Preprocessor1_Model03
 9    98    30 rsq     standard   0.955    10 0.00633 Preprocessor1_Model03
10   158    18 mae     standard   0.166    10 0.0131  Preprocessor1_Model04
# ℹ 50 more rows
…
